%YAML 1.1
%TAG !u! tag:unity3d.com,2011:
--- !u!78 &1
TagManager:
  serializedVersion: 2
  tags: []
  layers:
  - Default
  - TransparentFX
  - Ignore Raycast
  - 
  - Water
  - UI
  - 
  - 
  - Boss
  - BossWeapon
  - Hero
  - 
  - 
  - 
  - 
  - 
  - 
  - 
  - 
  - 
  - 
  - 
  - 
  - 
  - 
  - 
  - 
  - 
  - 
  - 
  - 
  - 
  m_SortingLayers:
  - name: Menu
    uniqueID: 674435309
    locked: 0
  - name: Background
    uniqueID: 3921640519
    locked: 0
  - name: Boss
    uniqueID: 616648153
    locked: 0
  - name: Bullets
    uniqueID: 2065215365
    locked: 0
  - name: Heros
    uniqueID: 622760455
    locked: 0
  - name: Boss Weapon
    uniqueID: 1912778363
    locked: 0
  - name: HUD
    uniqueID: 5505351
    locked: 0
  - name: Default
    uniqueID: 0
    locked: 0
