%YAML 1.1
%TAG !u! tag:unity3d.com,2011:
--- !u!74 &7400000
AnimationClip:
  m_ObjectHideFlags: 0
  m_PrefabParentObject: {fileID: 0}
  m_PrefabInternal: {fileID: 0}
  m_Name: boss_hint 9
  serializedVersion: 6
  m_Legacy: 0
  m_Compressed: 0
  m_UseHighQualityCurve: 1
  m_RotationCurves: []
  m_CompressedRotationCurves: []
  m_PositionCurves: []
  m_ScaleCurves: []
  m_FloatCurves: []
  m_PPtrCurves:
  - curve:
    - time: 0
      value: {fileID: 21300000, guid: 4fd642106d2abdf4a87120cca3912780, type: 3}
    - time: .100000001
      value: {fileID: 21300000, guid: 188bbd5edc6ca86418d3f2f15ad9a466, type: 3}
    - time: .200000003
      value: {fileID: 21300000, guid: eb3e421e0999c6041a470f6d6008dcbe, type: 3}
    - time: .300000012
      value: {fileID: 21300000, guid: 0346f09e782787e4cb5877bd3002d6fb, type: 3}
    - time: .400000006
      value: {fileID: 21300000, guid: 98ef2fecefba5c546b956ff4915e14d5, type: 3}
    - time: .5
      value: {fileID: 21300000, guid: 3bbd8c065a57b934d9e2fecb857e2cd3, type: 3}
    - time: .600000024
      value: {fileID: 21300000, guid: 0e2267d3a58e2f542a4285b56222dcd4, type: 3}
    - time: .700000048
      value: {fileID: 21300000, guid: 4f55ec512090ac34bb80442fec7b6e8d, type: 3}
    - time: .800000072
      value: {fileID: 21300000, guid: c96f766aceec60d45b0eaef908b7c3b8, type: 3}
    - time: .900000095
      value: {fileID: 21300000, guid: 6e1d18ad5640a0b409b469db64482a7d, type: 3}
    attribute: m_Sprite
    path: 
    classID: 212
    script: {fileID: 0}
  m_SampleRate: 10
  m_WrapMode: 0
  m_Bounds:
    m_Center: {x: 0, y: 0, z: 0}
    m_Extent: {x: 0, y: 0, z: 0}
  m_ClipBindingConstant:
    genericBindings:
    - path: 0
      attribute: 0
      script: {fileID: 0}
      classID: 212
      customType: 23
      isPPtrCurve: 1
    pptrCurveMapping:
    - {fileID: 21300000, guid: 4fd642106d2abdf4a87120cca3912780, type: 3}
    - {fileID: 21300000, guid: 188bbd5edc6ca86418d3f2f15ad9a466, type: 3}
    - {fileID: 21300000, guid: eb3e421e0999c6041a470f6d6008dcbe, type: 3}
    - {fileID: 21300000, guid: 0346f09e782787e4cb5877bd3002d6fb, type: 3}
    - {fileID: 21300000, guid: 98ef2fecefba5c546b956ff4915e14d5, type: 3}
    - {fileID: 21300000, guid: 3bbd8c065a57b934d9e2fecb857e2cd3, type: 3}
    - {fileID: 21300000, guid: 0e2267d3a58e2f542a4285b56222dcd4, type: 3}
    - {fileID: 21300000, guid: 4f55ec512090ac34bb80442fec7b6e8d, type: 3}
    - {fileID: 21300000, guid: c96f766aceec60d45b0eaef908b7c3b8, type: 3}
    - {fileID: 21300000, guid: 6e1d18ad5640a0b409b469db64482a7d, type: 3}
  m_AnimationClipSettings:
    serializedVersion: 2
    m_StartTime: 0
    m_StopTime: 1.00000012
    m_OrientationOffsetY: 0
    m_Level: 0
    m_CycleOffset: 0
    m_LoopTime: 0
    m_LoopBlend: 0
    m_LoopBlendOrientation: 0
    m_LoopBlendPositionY: 0
    m_LoopBlendPositionXZ: 0
    m_KeepOriginalOrientation: 0
    m_KeepOriginalPositionY: 1
    m_KeepOriginalPositionXZ: 0
    m_HeightFromFeet: 0
    m_Mirror: 0
  m_EditorCurves: []
  m_EulerEditorCurves: []
  m_HasGenericRootTransform: 0
  m_HasMotionFloatCurves: 0
  m_GenerateMotionCurves: 0
  m_Events: []
