%YAML 1.1
%TAG !u! tag:unity3d.com,2011:
--- !u!74 &7400000
AnimationClip:
  m_ObjectHideFlags: 0
  m_PrefabParentObject: {fileID: 0}
  m_PrefabInternal: {fileID: 0}
  m_Name: boss_hint 16
  serializedVersion: 6
  m_Legacy: 0
  m_Compressed: 0
  m_UseHighQualityCurve: 1
  m_RotationCurves: []
  m_CompressedRotationCurves: []
  m_PositionCurves: []
  m_ScaleCurves: []
  m_FloatCurves:
  - curve:
      serializedVersion: 2
      m_Curve:
      - time: 0
        value: 0
        inSlope: Infinity
        outSlope: Infinity
        tangentMode: 31
      m_PreInfinity: 2
      m_PostInfinity: 2
    attribute: BottomMiddle
    path: 
    classID: 114
    script: {fileID: 11500000, guid: fce5fd6882bcd2942b954124e2cd579d, type: 3}
  - curve:
      serializedVersion: 2
      m_Curve:
      - time: 0
        value: 1
        inSlope: Infinity
        outSlope: Infinity
        tangentMode: 31
      m_PreInfinity: 2
      m_PostInfinity: 2
    attribute: TopMiddle
    path: 
    classID: 114
    script: {fileID: 11500000, guid: fce5fd6882bcd2942b954124e2cd579d, type: 3}
  m_PPtrCurves:
  - curve:
    - time: 0
      value: {fileID: 21300000, guid: 9fa0d3fc8e01b6247986de2ca410d2c6, type: 3}
    - time: .100000001
      value: {fileID: 21300000, guid: b166ad894f2196540a1ca9bf307d72ff, type: 3}
    - time: .200000003
      value: {fileID: 21300000, guid: 55dbf7b2098069e42acbe38313ff3379, type: 3}
    - time: .300000012
      value: {fileID: 21300000, guid: f02590833ee567145b9d772c2100754c, type: 3}
    - time: .400000006
      value: {fileID: 21300000, guid: ceb4c815a6146704dbc61d413c8ddd3b, type: 3}
    - time: .5
      value: {fileID: 21300000, guid: afeceb705e0b66045b25cf9319d7e32c, type: 3}
    - time: .600000024
      value: {fileID: 21300000, guid: e462f76d6f60ea54da1bfecf44c89fc1, type: 3}
    - time: .700000048
      value: {fileID: 21300000, guid: d73f0c16aac31e740b5ebf6da7fc0d85, type: 3}
    - time: .800000072
      value: {fileID: 21300000, guid: 688c846172566a94ea30271212db0489, type: 3}
    - time: .899999976
      value: {fileID: 21300000, guid: 7d70ba8c23d8d964aa4bf1b43ba441bf, type: 3}
    - time: 1
      value: {fileID: 21300000, guid: 5e51628c20f9a684ea4a153f145bc195, type: 3}
    - time: 1.10000002
      value: {fileID: 21300000, guid: e76982379b936fa4e811ec045bb38d18, type: 3}
    - time: 1.20000005
      value: {fileID: 21300000, guid: ae63089b72ac2a5409e2b22998224e44, type: 3}
    - time: 1.30000007
      value: {fileID: 21300000, guid: ca921d4877ef2f342b35683764287b80, type: 3}
    - time: 1.4000001
      value: {fileID: 21300000, guid: 07c14298a8105004ea0ebbcde50b3da9, type: 3}
    - time: 1.50000012
      value: {fileID: 21300000, guid: cfd1d878558383c438387592b495d094, type: 3}
    - time: 1.60000014
      value: {fileID: 21300000, guid: cff10a861b7f42343b503f250434a13c, type: 3}
    - time: 1.70000017
      value: {fileID: 21300000, guid: 4260655f01a947d41abf8448879bf96b, type: 3}
    - time: 1.80000019
      value: {fileID: 21300000, guid: 1e55ecece6dce8c4f9d50d4c14209243, type: 3}
    attribute: m_Sprite
    path: 
    classID: 212
    script: {fileID: 0}
  m_SampleRate: 10
  m_WrapMode: 0
  m_Bounds:
    m_Center: {x: 0, y: 0, z: 0}
    m_Extent: {x: 0, y: 0, z: 0}
  m_ClipBindingConstant:
    genericBindings:
    - path: 0
      attribute: 4245167021
      script: {fileID: 11500000, guid: fce5fd6882bcd2942b954124e2cd579d, type: 3}
      classID: 114
      customType: 0
      isPPtrCurve: 0
    - path: 0
      attribute: 83548338
      script: {fileID: 11500000, guid: fce5fd6882bcd2942b954124e2cd579d, type: 3}
      classID: 114
      customType: 0
      isPPtrCurve: 0
    - path: 0
      attribute: 0
      script: {fileID: 0}
      classID: 212
      customType: 23
      isPPtrCurve: 1
    pptrCurveMapping:
    - {fileID: 21300000, guid: 9fa0d3fc8e01b6247986de2ca410d2c6, type: 3}
    - {fileID: 21300000, guid: b166ad894f2196540a1ca9bf307d72ff, type: 3}
    - {fileID: 21300000, guid: 55dbf7b2098069e42acbe38313ff3379, type: 3}
    - {fileID: 21300000, guid: f02590833ee567145b9d772c2100754c, type: 3}
    - {fileID: 21300000, guid: ceb4c815a6146704dbc61d413c8ddd3b, type: 3}
    - {fileID: 21300000, guid: afeceb705e0b66045b25cf9319d7e32c, type: 3}
    - {fileID: 21300000, guid: e462f76d6f60ea54da1bfecf44c89fc1, type: 3}
    - {fileID: 21300000, guid: d73f0c16aac31e740b5ebf6da7fc0d85, type: 3}
    - {fileID: 21300000, guid: 688c846172566a94ea30271212db0489, type: 3}
    - {fileID: 21300000, guid: 7d70ba8c23d8d964aa4bf1b43ba441bf, type: 3}
    - {fileID: 21300000, guid: 5e51628c20f9a684ea4a153f145bc195, type: 3}
    - {fileID: 21300000, guid: e76982379b936fa4e811ec045bb38d18, type: 3}
    - {fileID: 21300000, guid: ae63089b72ac2a5409e2b22998224e44, type: 3}
    - {fileID: 21300000, guid: ca921d4877ef2f342b35683764287b80, type: 3}
    - {fileID: 21300000, guid: 07c14298a8105004ea0ebbcde50b3da9, type: 3}
    - {fileID: 21300000, guid: cfd1d878558383c438387592b495d094, type: 3}
    - {fileID: 21300000, guid: cff10a861b7f42343b503f250434a13c, type: 3}
    - {fileID: 21300000, guid: 4260655f01a947d41abf8448879bf96b, type: 3}
    - {fileID: 21300000, guid: 1e55ecece6dce8c4f9d50d4c14209243, type: 3}
  m_AnimationClipSettings:
    serializedVersion: 2
    m_StartTime: 0
    m_StopTime: 1.90000021
    m_OrientationOffsetY: 0
    m_Level: 0
    m_CycleOffset: 0
    m_LoopTime: 0
    m_LoopBlend: 0
    m_LoopBlendOrientation: 0
    m_LoopBlendPositionY: 0
    m_LoopBlendPositionXZ: 0
    m_KeepOriginalOrientation: 0
    m_KeepOriginalPositionY: 1
    m_KeepOriginalPositionXZ: 0
    m_HeightFromFeet: 0
    m_Mirror: 0
  m_EditorCurves:
  - curve:
      serializedVersion: 2
      m_Curve:
      - time: 0
        value: 0
        inSlope: Infinity
        outSlope: Infinity
        tangentMode: 31
      m_PreInfinity: 2
      m_PostInfinity: 2
    attribute: BottomMiddle
    path: 
    classID: 114
    script: {fileID: 11500000, guid: fce5fd6882bcd2942b954124e2cd579d, type: 3}
  - curve:
      serializedVersion: 2
      m_Curve:
      - time: 0
        value: 1
        inSlope: Infinity
        outSlope: Infinity
        tangentMode: 31
      m_PreInfinity: 2
      m_PostInfinity: 2
    attribute: TopMiddle
    path: 
    classID: 114
    script: {fileID: 11500000, guid: fce5fd6882bcd2942b954124e2cd579d, type: 3}
  m_EulerEditorCurves: []
  m_HasGenericRootTransform: 0
  m_HasMotionFloatCurves: 0
  m_GenerateMotionCurves: 0
  m_Events: []
