%YAML 1.1
%TAG !u! tag:unity3d.com,2011:
--- !u!74 &7400000
AnimationClip:
  m_ObjectHideFlags: 0
  m_PrefabParentObject: {fileID: 0}
  m_PrefabInternal: {fileID: 0}
  m_Name: boss_attack_special4
  serializedVersion: 6
  m_Legacy: 0
  m_Compressed: 0
  m_UseHighQualityCurve: 1
  m_RotationCurves: []
  m_CompressedRotationCurves: []
  m_PositionCurves:
  - curve:
      serializedVersion: 2
      m_Curve:
      - time: 0
        value: {x: 2.5, y: 7.61000013, z: 0}
        inSlope: {x: 0, y: -20.9000015, z: 0}
        outSlope: {x: 0, y: -20.9000015, z: 0}
        tangentMode: 0
      - time: .400000006
        value: {x: 2.5, y: -.75, z: 0}
        inSlope: {x: 0, y: -20.9000015, z: 0}
        outSlope: {x: 0, y: -20.9000015, z: 0}
        tangentMode: 0
      m_PreInfinity: 2
      m_PostInfinity: 2
    path: scondaryWeapon
  - curve:
      serializedVersion: 2
      m_Curve:
      - time: 0
        value: {x: 0, y: 7.61000013, z: 0}
        inSlope: {x: 0, y: -20.9000015, z: 0}
        outSlope: {x: 0, y: -20.9000015, z: 0}
        tangentMode: 0
      - time: .400000006
        value: {x: 0, y: -.75, z: 0}
        inSlope: {x: 0, y: -20.9000015, z: 0}
        outSlope: {x: 0, y: -20.9000015, z: 0}
        tangentMode: 0
      m_PreInfinity: 2
      m_PostInfinity: 2
    path: thirdWeapon
  - curve:
      serializedVersion: 2
      m_Curve:
      - time: 0
        value: {x: -2.5, y: 7.61000013, z: 0}
        inSlope: {x: 0, y: -20.9000015, z: 0}
        outSlope: {x: 0, y: -20.9000015, z: 0}
        tangentMode: 0
      - time: .400000006
        value: {x: -2.5, y: -.75, z: 0}
        inSlope: {x: 0, y: -20.9000015, z: 0}
        outSlope: {x: 0, y: -20.9000015, z: 0}
        tangentMode: 0
      m_PreInfinity: 2
      m_PostInfinity: 2
    path: Weapon
  m_ScaleCurves: []
  m_FloatCurves:
  - curve:
      serializedVersion: 2
      m_Curve:
      - time: 0
        value: .5
        inSlope: 0
        outSlope: 0
        tangentMode: 10
      - time: .400000006
        value: .5
        inSlope: -.625
        outSlope: -.625
        tangentMode: 10
      - time: .800000012
        value: 0
        inSlope: -1.25
        outSlope: -1.25
        tangentMode: 10
      m_PreInfinity: 2
      m_PostInfinity: 2
    attribute: m_Color.a
    path: scondaryWeapon
    classID: 212
    script: {fileID: 0}
  - curve:
      serializedVersion: 2
      m_Curve:
      - time: 0
        value: 0
        inSlope: Infinity
        outSlope: Infinity
        tangentMode: 31
      - time: .400000006
        value: 0
        inSlope: Infinity
        outSlope: Infinity
        tangentMode: 31
      m_PreInfinity: 2
      m_PostInfinity: 2
    attribute: m_Enabled
    path: scondaryWeapon
    classID: 61
    script: {fileID: 0}
  - curve:
      serializedVersion: 2
      m_Curve:
      - time: 0
        value: 2.20000005
        inSlope: -1.46659982
        outSlope: -1.46659982
        tangentMode: 10
      m_PreInfinity: 2
      m_PostInfinity: 2
    attribute: m_Size.x
    path: scondaryWeapon
    classID: 61
    script: {fileID: 0}
  - curve:
      serializedVersion: 2
      m_Curve:
      - time: 0
        value: 4
        inSlope: -2.66659975
        outSlope: -2.66659975
        tangentMode: 10
      m_PreInfinity: 2
      m_PostInfinity: 2
    attribute: m_Size.y
    path: scondaryWeapon
    classID: 61
    script: {fileID: 0}
  - curve:
      serializedVersion: 2
      m_Curve:
      - time: 0
        value: 1
        inSlope: Infinity
        outSlope: Infinity
        tangentMode: 31
      m_PreInfinity: 2
      m_PostInfinity: 2
    attribute: m_Enabled
    path: thirdWeapon
    classID: 61
    script: {fileID: 0}
  - curve:
      serializedVersion: 2
      m_Curve:
      - time: 0
        value: 2.20000005
        inSlope: -1.46659982
        outSlope: -1.46659982
        tangentMode: 10
      m_PreInfinity: 2
      m_PostInfinity: 2
    attribute: m_Size.x
    path: thirdWeapon
    classID: 61
    script: {fileID: 0}
  - curve:
      serializedVersion: 2
      m_Curve:
      - time: 0
        value: 4
        inSlope: -2.66659975
        outSlope: -2.66659975
        tangentMode: 10
      m_PreInfinity: 2
      m_PostInfinity: 2
    attribute: m_Size.y
    path: thirdWeapon
    classID: 61
    script: {fileID: 0}
  - curve:
      serializedVersion: 2
      m_Curve:
      - time: 0
        value: 1
        inSlope: Infinity
        outSlope: Infinity
        tangentMode: 31
      m_PreInfinity: 2
      m_PostInfinity: 2
    attribute: m_Enabled
    path: Weapon
    classID: 61
    script: {fileID: 0}
  - curve:
      serializedVersion: 2
      m_Curve:
      - time: 0
        value: 2.20000005
        inSlope: -1.46659982
        outSlope: -1.46659982
        tangentMode: 10
      m_PreInfinity: 2
      m_PostInfinity: 2
    attribute: m_Size.x
    path: Weapon
    classID: 61
    script: {fileID: 0}
  - curve:
      serializedVersion: 2
      m_Curve:
      - time: 0
        value: 4
        inSlope: -2.66659975
        outSlope: -2.66659975
        tangentMode: 10
      m_PreInfinity: 2
      m_PostInfinity: 2
    attribute: m_Size.y
    path: Weapon
    classID: 61
    script: {fileID: 0}
  m_PPtrCurves:
  - curve:
    - time: 0
      value: {fileID: 21300000, guid: 5aba4f332e9e9ca42b7856f032df5873, type: 3}
    attribute: m_Sprite
    path: scondaryWeapon
    classID: 212
    script: {fileID: 0}
  - curve:
    - time: 0
      value: {fileID: 21300000, guid: bb7b81320362c0645a2005865384d012, type: 3}
    - time: .400000006
      value: {fileID: 21300000, guid: 5cbce4626f8c0dd4fb828477f24d81aa, type: 3}
    - time: .5
      value: {fileID: 21300002, guid: 5cbce4626f8c0dd4fb828477f24d81aa, type: 3}
    - time: .600000024
      value: {fileID: 21300004, guid: 5cbce4626f8c0dd4fb828477f24d81aa, type: 3}
    - time: .700000048
      value: {fileID: 21300006, guid: 5cbce4626f8c0dd4fb828477f24d81aa, type: 3}
    - time: .800000072
      value: {fileID: 21300008, guid: 5cbce4626f8c0dd4fb828477f24d81aa, type: 3}
    attribute: m_Sprite
    path: thirdWeapon
    classID: 212
    script: {fileID: 0}
  - curve:
    - time: 0
      value: {fileID: 21300000, guid: bb7b81320362c0645a2005865384d012, type: 3}
    - time: .400000006
      value: {fileID: 21300000, guid: 5cbce4626f8c0dd4fb828477f24d81aa, type: 3}
    - time: .5
      value: {fileID: 21300002, guid: 5cbce4626f8c0dd4fb828477f24d81aa, type: 3}
    - time: .600000024
      value: {fileID: 21300004, guid: 5cbce4626f8c0dd4fb828477f24d81aa, type: 3}
    - time: .700000048
      value: {fileID: 21300006, guid: 5cbce4626f8c0dd4fb828477f24d81aa, type: 3}
    - time: .800000072
      value: {fileID: 21300008, guid: 5cbce4626f8c0dd4fb828477f24d81aa, type: 3}
    attribute: m_Sprite
    path: Weapon
    classID: 212
    script: {fileID: 0}
  m_SampleRate: 10
  m_WrapMode: 0
  m_Bounds:
    m_Center: {x: 0, y: 0, z: 0}
    m_Extent: {x: 0, y: 0, z: 0}
  m_ClipBindingConstant:
    genericBindings:
    - path: 1998857733
      attribute: 1
      script: {fileID: 0}
      classID: 4
      customType: 0
      isPPtrCurve: 0
    - path: 1499274894
      attribute: 1
      script: {fileID: 0}
      classID: 4
      customType: 0
      isPPtrCurve: 0
    - path: 1855955664
      attribute: 1
      script: {fileID: 0}
      classID: 4
      customType: 0
      isPPtrCurve: 0
    - path: 1998857733
      attribute: 304273561
      script: {fileID: 0}
      classID: 212
      customType: 0
      isPPtrCurve: 0
    - path: 1998857733
      attribute: 3305885265
      script: {fileID: 0}
      classID: 61
      customType: 0
      isPPtrCurve: 0
    - path: 1998857733
      attribute: 4197328169
      script: {fileID: 0}
      classID: 61
      customType: 0
      isPPtrCurve: 0
    - path: 1998857733
      attribute: 2368279999
      script: {fileID: 0}
      classID: 61
      customType: 0
      isPPtrCurve: 0
    - path: 1499274894
      attribute: 3305885265
      script: {fileID: 0}
      classID: 61
      customType: 0
      isPPtrCurve: 0
    - path: 1499274894
      attribute: 4197328169
      script: {fileID: 0}
      classID: 61
      customType: 0
      isPPtrCurve: 0
    - path: 1499274894
      attribute: 2368279999
      script: {fileID: 0}
      classID: 61
      customType: 0
      isPPtrCurve: 0
    - path: 1855955664
      attribute: 3305885265
      script: {fileID: 0}
      classID: 61
      customType: 0
      isPPtrCurve: 0
    - path: 1855955664
      attribute: 4197328169
      script: {fileID: 0}
      classID: 61
      customType: 0
      isPPtrCurve: 0
    - path: 1855955664
      attribute: 2368279999
      script: {fileID: 0}
      classID: 61
      customType: 0
      isPPtrCurve: 0
    - path: 1998857733
      attribute: 0
      script: {fileID: 0}
      classID: 212
      customType: 23
      isPPtrCurve: 1
    - path: 1499274894
      attribute: 0
      script: {fileID: 0}
      classID: 212
      customType: 23
      isPPtrCurve: 1
    - path: 1855955664
      attribute: 0
      script: {fileID: 0}
      classID: 212
      customType: 23
      isPPtrCurve: 1
    pptrCurveMapping:
    - {fileID: 21300000, guid: 5aba4f332e9e9ca42b7856f032df5873, type: 3}
    - {fileID: 21300000, guid: bb7b81320362c0645a2005865384d012, type: 3}
    - {fileID: 21300000, guid: 5cbce4626f8c0dd4fb828477f24d81aa, type: 3}
    - {fileID: 21300002, guid: 5cbce4626f8c0dd4fb828477f24d81aa, type: 3}
    - {fileID: 21300004, guid: 5cbce4626f8c0dd4fb828477f24d81aa, type: 3}
    - {fileID: 21300006, guid: 5cbce4626f8c0dd4fb828477f24d81aa, type: 3}
    - {fileID: 21300008, guid: 5cbce4626f8c0dd4fb828477f24d81aa, type: 3}
    - {fileID: 21300000, guid: bb7b81320362c0645a2005865384d012, type: 3}
    - {fileID: 21300000, guid: 5cbce4626f8c0dd4fb828477f24d81aa, type: 3}
    - {fileID: 21300002, guid: 5cbce4626f8c0dd4fb828477f24d81aa, type: 3}
    - {fileID: 21300004, guid: 5cbce4626f8c0dd4fb828477f24d81aa, type: 3}
    - {fileID: 21300006, guid: 5cbce4626f8c0dd4fb828477f24d81aa, type: 3}
    - {fileID: 21300008, guid: 5cbce4626f8c0dd4fb828477f24d81aa, type: 3}
  m_AnimationClipSettings:
    serializedVersion: 2
    m_StartTime: 0
    m_StopTime: .900000095
    m_OrientationOffsetY: 0
    m_Level: 0
    m_CycleOffset: 0
    m_LoopTime: 0
    m_LoopBlend: 0
    m_LoopBlendOrientation: 0
    m_LoopBlendPositionY: 0
    m_LoopBlendPositionXZ: 0
    m_KeepOriginalOrientation: 0
    m_KeepOriginalPositionY: 1
    m_KeepOriginalPositionXZ: 0
    m_HeightFromFeet: 0
    m_Mirror: 0
  m_EditorCurves:
  - curve:
      serializedVersion: 2
      m_Curve:
      - time: 0
        value: 2.5
        inSlope: 0
        outSlope: 0
        tangentMode: 10
      - time: .400000006
        value: 2.5
        inSlope: 0
        outSlope: 0
        tangentMode: 10
      m_PreInfinity: 2
      m_PostInfinity: 2
    attribute: m_LocalPosition.x
    path: scondaryWeapon
    classID: 4
    script: {fileID: 0}
  - curve:
      serializedVersion: 2
      m_Curve:
      - time: 0
        value: 7.61000013
        inSlope: -20.9000015
        outSlope: -20.9000015
        tangentMode: 10
      - time: .400000006
        value: -.75
        inSlope: -20.9000015
        outSlope: -20.9000015
        tangentMode: 10
      m_PreInfinity: 2
      m_PostInfinity: 2
    attribute: m_LocalPosition.y
    path: scondaryWeapon
    classID: 4
    script: {fileID: 0}
  - curve:
      serializedVersion: 2
      m_Curve:
      - time: 0
        value: 0
        inSlope: 0
        outSlope: 0
        tangentMode: 10
      - time: .400000006
        value: 0
        inSlope: 0
        outSlope: 0
        tangentMode: 10
      m_PreInfinity: 2
      m_PostInfinity: 2
    attribute: m_LocalPosition.z
    path: scondaryWeapon
    classID: 4
    script: {fileID: 0}
  - curve:
      serializedVersion: 2
      m_Curve:
      - time: 0
        value: .5
        inSlope: 0
        outSlope: 0
        tangentMode: 10
      - time: .400000006
        value: .5
        inSlope: -.625
        outSlope: -.625
        tangentMode: 10
      - time: .800000012
        value: 0
        inSlope: -1.25
        outSlope: -1.25
        tangentMode: 10
      m_PreInfinity: 2
      m_PostInfinity: 2
    attribute: m_Color.a
    path: scondaryWeapon
    classID: 212
    script: {fileID: 0}
  - curve:
      serializedVersion: 2
      m_Curve:
      - time: 0
        value: 0
        inSlope: 0
        outSlope: 0
        tangentMode: 10
      - time: .400000006
        value: 0
        inSlope: 0
        outSlope: 0
        tangentMode: 10
      m_PreInfinity: 2
      m_PostInfinity: 2
    attribute: m_LocalPosition.x
    path: thirdWeapon
    classID: 4
    script: {fileID: 0}
  - curve:
      serializedVersion: 2
      m_Curve:
      - time: 0
        value: 7.61000013
        inSlope: -20.9000015
        outSlope: -20.9000015
        tangentMode: 10
      - time: .400000006
        value: -.75
        inSlope: -20.9000015
        outSlope: -20.9000015
        tangentMode: 10
      m_PreInfinity: 2
      m_PostInfinity: 2
    attribute: m_LocalPosition.y
    path: thirdWeapon
    classID: 4
    script: {fileID: 0}
  - curve:
      serializedVersion: 2
      m_Curve:
      - time: 0
        value: 0
        inSlope: 0
        outSlope: 0
        tangentMode: 10
      - time: .400000006
        value: 0
        inSlope: 0
        outSlope: 0
        tangentMode: 10
      m_PreInfinity: 2
      m_PostInfinity: 2
    attribute: m_LocalPosition.z
    path: thirdWeapon
    classID: 4
    script: {fileID: 0}
  - curve:
      serializedVersion: 2
      m_Curve:
      - time: 0
        value: -2.5
        inSlope: 0
        outSlope: 0
        tangentMode: 10
      - time: .400000006
        value: -2.5
        inSlope: 0
        outSlope: 0
        tangentMode: 10
      m_PreInfinity: 2
      m_PostInfinity: 2
    attribute: m_LocalPosition.x
    path: Weapon
    classID: 4
    script: {fileID: 0}
  - curve:
      serializedVersion: 2
      m_Curve:
      - time: 0
        value: 7.61000013
        inSlope: -20.9000015
        outSlope: -20.9000015
        tangentMode: 10
      - time: .400000006
        value: -.75
        inSlope: -20.9000015
        outSlope: -20.9000015
        tangentMode: 10
      m_PreInfinity: 2
      m_PostInfinity: 2
    attribute: m_LocalPosition.y
    path: Weapon
    classID: 4
    script: {fileID: 0}
  - curve:
      serializedVersion: 2
      m_Curve:
      - time: 0
        value: 0
        inSlope: 0
        outSlope: 0
        tangentMode: 10
      - time: .400000006
        value: 0
        inSlope: 0
        outSlope: 0
        tangentMode: 10
      m_PreInfinity: 2
      m_PostInfinity: 2
    attribute: m_LocalPosition.z
    path: Weapon
    classID: 4
    script: {fileID: 0}
  - curve:
      serializedVersion: 2
      m_Curve:
      - time: 0
        value: 0
        inSlope: Infinity
        outSlope: Infinity
        tangentMode: 31
      - time: .400000006
        value: 0
        inSlope: Infinity
        outSlope: Infinity
        tangentMode: 31
      m_PreInfinity: 2
      m_PostInfinity: 2
    attribute: m_Enabled
    path: scondaryWeapon
    classID: 61
    script: {fileID: 0}
  - curve:
      serializedVersion: 2
      m_Curve:
      - time: 0
        value: 2.20000005
        inSlope: -1.46659982
        outSlope: -1.46659982
        tangentMode: 10
      m_PreInfinity: 2
      m_PostInfinity: 2
    attribute: m_Size.x
    path: scondaryWeapon
    classID: 61
    script: {fileID: 0}
  - curve:
      serializedVersion: 2
      m_Curve:
      - time: 0
        value: 4
        inSlope: -2.66659975
        outSlope: -2.66659975
        tangentMode: 10
      m_PreInfinity: 2
      m_PostInfinity: 2
    attribute: m_Size.y
    path: scondaryWeapon
    classID: 61
    script: {fileID: 0}
  - curve:
      serializedVersion: 2
      m_Curve:
      - time: 0
        value: 1
        inSlope: Infinity
        outSlope: Infinity
        tangentMode: 31
      m_PreInfinity: 2
      m_PostInfinity: 2
    attribute: m_Enabled
    path: thirdWeapon
    classID: 61
    script: {fileID: 0}
  - curve:
      serializedVersion: 2
      m_Curve:
      - time: 0
        value: 2.20000005
        inSlope: -1.46659982
        outSlope: -1.46659982
        tangentMode: 10
      m_PreInfinity: 2
      m_PostInfinity: 2
    attribute: m_Size.x
    path: thirdWeapon
    classID: 61
    script: {fileID: 0}
  - curve:
      serializedVersion: 2
      m_Curve:
      - time: 0
        value: 4
        inSlope: -2.66659975
        outSlope: -2.66659975
        tangentMode: 10
      m_PreInfinity: 2
      m_PostInfinity: 2
    attribute: m_Size.y
    path: thirdWeapon
    classID: 61
    script: {fileID: 0}
  - curve:
      serializedVersion: 2
      m_Curve:
      - time: 0
        value: 1
        inSlope: Infinity
        outSlope: Infinity
        tangentMode: 31
      m_PreInfinity: 2
      m_PostInfinity: 2
    attribute: m_Enabled
    path: Weapon
    classID: 61
    script: {fileID: 0}
  - curve:
      serializedVersion: 2
      m_Curve:
      - time: 0
        value: 2.20000005
        inSlope: -1.46659982
        outSlope: -1.46659982
        tangentMode: 10
      m_PreInfinity: 2
      m_PostInfinity: 2
    attribute: m_Size.x
    path: Weapon
    classID: 61
    script: {fileID: 0}
  - curve:
      serializedVersion: 2
      m_Curve:
      - time: 0
        value: 4
        inSlope: -2.66659975
        outSlope: -2.66659975
        tangentMode: 10
      m_PreInfinity: 2
      m_PostInfinity: 2
    attribute: m_Size.y
    path: Weapon
    classID: 61
    script: {fileID: 0}
  m_EulerEditorCurves: []
  m_HasGenericRootTransform: 0
  m_HasMotionFloatCurves: 0
  m_GenerateMotionCurves: 0
  m_Events:
  - time: .400000006
    functionName: Shake
    data: 
    objectReferenceParameter: {fileID: 0}
    floatParameter: 0
    intParameter: 0
    messageOptions: 0
